%YAML 1.1
%TAG !u! tag:unity3d.com,2011:
--- !u!114 &11400000
MonoBehaviour:
  m_ObjectHideFlags: 0
  m_CorrespondingSourceObject: {fileID: 0}
  m_PrefabInternal: {fileID: 0}
  m_GameObject: {fileID: 0}
  m_Enabled: 1
  m_EditorHideFlags: 0
  m_Script: {fileID: 11500000, guid: f2af28221bd6b864eb3a776c48b100a5, type: 3}
  m_Name: Component - Long Distance Sight - Modifiers
  m_EditorClassIdentifier: 
  modifiers:
  - name: 2
    type: 1
    amount: 5
