%YAML 1.1
%TAG !u! tag:unity3d.com,2011:
--- !u!114 &11400000
MonoBehaviour:
  m_ObjectHideFlags: 0
  m_CorrespondingSourceObject: {fileID: 0}
  m_PrefabInternal: {fileID: 0}
  m_GameObject: {fileID: 0}
  m_Enabled: 1
  m_EditorHideFlags: 0
  m_Script: {fileID: 11500000, guid: 4af4f959d81aafc4b96264d3a9f80588, type: 3}
  m_Name: Component - Bow End - Inventory Data
  m_EditorClassIdentifier: 
  displayName: Bow End
  stackable: 0
  displayImage: {fileID: 21300000, guid: 6790c2c08113ba6499971a8f90548286, type: 3}
