%YAML 1.1
%TAG !u! tag:unity3d.com,2011:
--- !u!114 &11400000
MonoBehaviour:
  m_ObjectHideFlags: 0
  m_CorrespondingSourceObject: {fileID: 0}
  m_PrefabInternal: {fileID: 0}
  m_GameObject: {fileID: 0}
  m_Enabled: 1
  m_EditorHideFlags: 0
  m_Script: {fileID: 11500000, guid: 2a11601a8f92cfd45b0da36505c761a5, type: 3}
  m_Name: Component - Sword Piece
  m_EditorClassIdentifier: 
  materials:
  - type: Stone
    amount: 3
  componentName: Sword Piece
  componentResult: {fileID: 1583725215758616, guid: 50c89a217bf8010439a1e4120a9057a6,
    type: 2}
  itemData: {fileID: 11400000, guid: 401fb04c2743d90429388294196884e8, type: 2}
