%YAML 1.1
%TAG !u! tag:unity3d.com,2011:
--- !u!114 &11400000
MonoBehaviour:
  m_ObjectHideFlags: 0
  m_CorrespondingSourceObject: {fileID: 0}
  m_PrefabInstance: {fileID: 0}
  m_PrefabAsset: {fileID: 0}
  m_GameObject: {fileID: 0}
  m_Enabled: 1
  m_EditorHideFlags: 0
  m_Script: {fileID: 11500000, guid: f2af28221bd6b864eb3a776c48b100a5, type: 3}
  m_Name: Component - Sniper - Modifiers
  m_EditorClassIdentifier: 
  modifiers:
  - name: 0
    type: 2
    amount: 400
  - name: 1
    type: 2
    amount: -50
  - name: 2
    type: 2
    amount: 20
  - name: 3
    type: 2
    amount: 200
  - name: 4
    type: 2
    amount: -85
